{
  "transform": {
    "^.+\\.(t|j)sx?$": "ts-jest"
  },
  "roots": ["<rootDir>/src/"],
  "coverageDirectory": "build/coverage/",
  "coverageThreshold": {
    "global": {
      "branches": 10,
      "functions": 10,
      "lines": 10,
      "statements": 10
    }
  }
}